{  
   "username":"player",
   "id":200,
   "gold":0,
   "level":1,
   "xp":0.0,
   "timePlayed":1,
   "quests":[  

   ],
   "achievement":[  

   ],
   "netData":{  
      "name":"player",
      "id":117,
      "level":1
   }
}