%YAML 1.1
%TAG !u! tag:unity3d.com,2011:
--- !u!1001 &100100000
Prefab:
  m_ObjectHideFlags: 1
  serializedVersion: 2
  m_Modification:
    m_TransformParent: {fileID: 0}
    m_Modifications: []
    m_RemovedComponents: []
  m_ParentPrefab: {fileID: 0}
  m_RootGameObject: {fileID: 1034110057574864}
  m_IsPrefabParent: 1
--- !u!1 &1034110057574864
GameObject:
  m_ObjectHideFlags: 0
  m_PrefabParentObject: {fileID: 0}
  m_PrefabInternal: {fileID: 100100000}
  serializedVersion: 5
  m_Component:
  - component: {fileID: 4271610092354444}
  - component: {fileID: 119366727335434896}
  m_Layer: 0
  m_Name: Projector_prefab
  m_TagString: Untagged
  m_Icon: {fileID: 0}
  m_NavMeshLayer: 0
  m_StaticEditorFlags: 0
  m_IsActive: 1
--- !u!4 &4271610092354444
Transform:
  m_ObjectHideFlags: 1
  m_PrefabParentObject: {fileID: 0}
  m_PrefabInternal: {fileID: 100100000}
  m_GameObject: {fileID: 1034110057574864}
  m_LocalRotation: {x: 0.7071068, y: -0, z: -0, w: 0.7071068}
<<<<<<< HEAD
  m_LocalPosition: {x: 0, y: 14.79, z: 0}
=======
<<<<<<< HEAD
<<<<<<< HEAD
  m_LocalPosition: {x: 0, y: 1, z: 0}
=======
  m_LocalPosition: {x: -5.296058, y: 1.79, z: -15.815462}
>>>>>>> c79b98c3add61794f3ededa64a47208f56f4a593
=======
  m_LocalPosition: {x: -5.296058, y: 1.79, z: -15.815462}
>>>>>>> c79b98c3add61794f3ededa64a47208f56f4a593
>>>>>>> 052961fcf39fad810ca31c1aaa24ef36ee5b1da5
  m_LocalScale: {x: 1, y: 1, z: 1}
  m_Children: []
  m_Father: {fileID: 0}
  m_RootOrder: 0
  m_LocalEulerAnglesHint: {x: 90, y: 0, z: 0}
--- !u!119 &119366727335434896
Projector:
  m_ObjectHideFlags: 1
  m_PrefabParentObject: {fileID: 0}
  m_PrefabInternal: {fileID: 100100000}
  m_GameObject: {fileID: 1034110057574864}
  m_Enabled: 1
  serializedVersion: 2
  m_NearClipPlane: 0.1
  m_FarClipPlane: 10
  m_FieldOfView: 60
  m_AspectRatio: 1
  m_Orthographic: 1
  m_OrthographicSize: 3
  m_Material: {fileID: 2100000, guid: 28bc7ddc1a13f504082d814d1d3ccd19, type: 2}
  m_IgnoreLayers:
    serializedVersion: 2
    m_Bits: 0
