%YAML 1.1
%TAG !u! tag:unity3d.com,2011:
--- !u!1045 &1
EditorBuildSettings:
  m_ObjectHideFlags: 0
  serializedVersion: 2
  m_Scenes:
  - enabled: 1
    path: Assets/Lobby/NetworkLobby.unity
    guid: 3bf09be90a6dc8048a2c288b7bd4edd3
  - enabled: 1
    path: Assets/Map/Scenes/TestMap.unity
    guid: 5784224c33809e64686ab33a5528f6e6
  - enabled: 1
    path: Assets/LoadingScreen/LoadingScreen.unity
    guid: b369df2736a726f41a73214d77fab353
  - enabled: 1
    path: Assets/TestSan/San.unity
    guid: 4c6b66ce90da41f4d9a71e5f2d18580f
